{
    "Version": "2012-10-17",
    "Statement": [
        {
            "Action": [
                "logs:CreateLogGroup",
                "logs:CreateLogStream",
                "logs:PutLogEvents"
            ],
            "Resource": "arn:aws:logs:*:*:*",
            "Effect": "Allow"
        },
        {
            "Effect": "Allow",
            "Action": [
                "cloudformation:*"
            ],
            "Resource": "arn:aws:cloudformation:*:*:stack/BootStrap-*"
        },
        {
            "Effect": "Allow",
            "Action": [
                "iam:*",
                "ses:SendEmail",
                "ses:SendRawEmail"
            ],
            "Resource": "*"
        }
    ]
}
